Produce 101 seasons 1 & 2 data analysis
…
##                     Company     n
##                       <chr> <int>
##  1       Individual Trainee    11
##  2     Pledis Entertainment    11
##  3 Happy Face Entertainment     9
##  4   Blessing Entertainment     7
##  5                 Fantagio     6
##  6      Midas Entertainment     6
##  7       Cube Entertainment     5
##  8        MMO Entertainment     5
##  9     Rainbow Bridge World     5
## 10   Starship Entertainment     5
## 11     Yuehua Entertainment     5

## # A tibble: 46 x 2
## # Groups:   Company [46]
##                     Company     n
##                       <chr> <int>
##  1 Happy Face Entertainment     9
##  2     Pledis Entertainment     7
##  3       Individual Trainee     6
##  4      Midas Entertainment     6
##  5   Blessing Entertainment     5
##  6                 Fantagio     5
##  7     Kconic Entertainment     4
##  8       Cube Entertainment     3
##  9  Jellyfish Entertainment     3
## 10    LOUDers Entertainment     3
## # ... with 36 more rows

## # A tibble: 53 x 2
## # Groups:   Company [53]
##                 Company     n
##                   <chr> <int>
##  1   Individual Trainee     5
##  2    MMO Entertainment     5
##  3 Rainbow Bridge World     5
##  4 Yuehua Entertainment     5
##  5      Brand New Music     4
##  6     HF Music Company     4
##  7  I.One Entertainment     4
##  8 Pledis Entertainment     4
##  9       The Vibe Label     4
## 10              YGKPlus     4
## # ... with 43 more rows
…
